{
  "project_info": {
    "project_number": "94750146765",
    "firebase_url": "https://project-dd775.firebaseio.com",
    "project_id": "project-dd775",
    "storage_bucket": "project-dd775.appspot.com"
  },
  "client": [
    {
      "client_info": {
        "mobilesdk_app_id": "1:94750146765:android:b8b19c98a72662a5",
        "android_client_info": {
          "package_name": "com.example.master.androidjavaapplication"
        }
      },
      "oauth_client": [
        {
          "client_id": "94750146765-nodf06tn72dkalbvd2ulnaidkflb97s8.apps.googleusercontent.com",
          "client_type": 3
        }
      ],
      "api_key": [
        {
          "current_key": "AIzaSyBCRGZdZhl0x6ywiAUequ10dT2p-BpUxKY"
        }
      ],
      "services": {
        "analytics_service": {
          "status": 1
        },
        "appinvite_service": {
          "status": 1,
          "other_platform_oauth_client": []
        },
        "ads_service": {
          "status": 2
        }
      }
    },
    {
      "client_info": {
        "mobilesdk_app_id": "1:94750146765:android:16257bef0411f0f4",
        "android_client_info": {
          "package_name": "it.cocito.chef"
        }
      },
      "oauth_client": [
        {
          "client_id": "94750146765-nodf06tn72dkalbvd2ulnaidkflb97s8.apps.googleusercontent.com",
          "client_type": 3
        }
      ],
      "api_key": [
        {
          "current_key": "AIzaSyBCRGZdZhl0x6ywiAUequ10dT2p-BpUxKY"
        }
      ],
      "services": {
        "analytics_service": {
          "status": 1
        },
        "appinvite_service": {
          "status": 1,
          "other_platform_oauth_client": []
        },
        "ads_service": {
          "status": 2
        }
      }
    }
  ],
  "configuration_version": "1"
}